{
    "KPlugin": {
        "Description": "File system browser tool view",
        "Description[az]": "Fayl sistemi bələdçisi aləti görünüşü",
        "Description[bg]": "Изглед на преглед на файловата система",
        "Description[ca@valencia]": "Vista d'eina del navegador pel sistema de fitxers",
        "Description[ca]": "Vista d'eina del navegador pel sistema de fitxers",
        "Description[cs]": "Nástroj pro procházení souborového systému",
        "Description[de]": "Werkzeugansicht für Dateisystem-Browser",
        "Description[el]": "Προβολή εργαλείου περιηγητή συστήματος αρχείων",
        "Description[en_GB]": "File system browser tool view",
        "Description[eo]": "Perspektivo de dosiersistema retumilo",
        "Description[es]": "Vista de la herramienta del navegador del sistema de archivos",
        "Description[eu]": "Fitxategi-sistema arakatzaile tresnaren ikuspegia",
        "Description[fi]": "Tiedostojärjestelmäselaimen työkalunäkymä",
        "Description[fr]": "Vue des outils de l'explorateur de systèmes de fichiers",
        "Description[gl]": "Vista da utilidade de navegador do sistema de ficheiros.",
        "Description[hu]": "Fájlrendszer-böngésző eszköznézet",
        "Description[ia]": "Vista de instrumento de navigator de systema de file",
        "Description[ie]": "Navigar li sistema de files",
        "Description[it]": "Strumento di selezione dei file",
        "Description[ka]": "ფაილური სისტემის ბრაუზერის ხედი",
        "Description[ko]": "파일 시스템 탐색기 도구 보기",
        "Description[nl]": "Blader door het bestandssysteem",
        "Description[pl]": "Widok narzędzia przeglądarki systemu plików",
        "Description[pt]": "Área de navegação no sistema de ficheiros",
        "Description[ru]": "Панель для просмотра файловой системы",
        "Description[sk]": "Zobrazenie nástroja prehliadača súborového systému",
        "Description[sl]": "Pogled orodja brskalnika po datotekah",
        "Description[sv]": "Verktygsvy för filsystembläddring",
        "Description[tr]": "Dosya sistemi tarayıcısı araç görünümü",
        "Description[uk]": "Панель навігатора файловою системою",
        "Description[vi]": "Khung xem công cụ \"trình duyệt hệ thống tệp\"",
        "Description[x-test]": "xxFile system browser tool viewxx",
        "Description[zh_CN]": "文件系统浏览器工具视图",
        "Name": "File System Browser",
        "Name[az]": "Fayl sistemi bələdçisi",
        "Name[bg]": "Преглед на файловата система",
        "Name[ca@valencia]": "Navegador del sistema de fitxers",
        "Name[ca]": "Navegador del sistema de fitxers",
        "Name[cs]": "Prohlížeč souborového systému",
        "Name[de]": "Dateisystem-Browser",
        "Name[el]": "Περιηγητής συστήματος αρχείων",
        "Name[en_GB]": "File System Browser",
        "Name[eo]": "Dosiersistema Retumilo",
        "Name[es]": "Navegador del sistema de archivos",
        "Name[eu]": "Fitxategi-sistemaren arakatzailea",
        "Name[fi]": "Tiedostojärjestelmäselain",
        "Name[fr]": "Explorateur du système de fichiers",
        "Name[gl]": "Navegador do sistema de ficheiros",
        "Name[hu]": "Fájlrendszer-böngésző",
        "Name[ia]": "Navigator de systema de file",
        "Name[ie]": "Navigator del sistema de files",
        "Name[it]": "Selettore dei file",
        "Name[ka]": "ფაილური სისტემის ბრაუზერი",
        "Name[ko]": "파일 시스템 탐색기",
        "Name[my]": "ဖိုင်စနစ်ဘရောက်ဇာ",
        "Name[nl]": "Bestandssysteembrowser",
        "Name[pl]": "Przeglądarka systemu plików",
        "Name[pt]": "Navegador do Sistema de Ficheiros",
        "Name[pt_BR]": "Navegador do sistema de arquivos",
        "Name[ru]": "Обзор файловой системы",
        "Name[sk]": "Prehliadač súborového systému",
        "Name[sl]": "Brskalnik po sistemu datotek",
        "Name[sv]": "Filsystembläddrare",
        "Name[tr]": "Dosya Sistemi Tarayıcısı",
        "Name[uk]": "Навігатор файловою системою",
        "Name[vi]": "Trình duyệt hệ thống tệp",
        "Name[x-test]": "xxFile System Browserxx",
        "Name[zh_CN]": "文件系统浏览器",
        "ServiceTypes": [
            "KTextEditor/Plugin"
        ]
    }
}
